<?xml version="1.0" encoding="UTF-8"?>
<svg width="375px" height="405px" viewBox="0 0 375 405" version="1.1" xmlns="http://www.w3.org/2000/svg" xmlns:xlink="http://www.w3.org/1999/xlink">
    <!-- Generator: Sketch 48.2 (47327) - http://www.bohemiancoding.com/sketch -->
    <title>Path 2</title>
    <desc>Created with Sketch.</desc>
    <defs>
        <linearGradient x1="50%" y1="2.77065315%" x2="50%" y2="76.2402831%" id="linearGradient-1">
            <stop stop-color="#E92530" stop-opacity="0.9" offset="0%"></stop>
            <stop stop-color="#701217" stop-opacity="0.9" offset="52.1210601%"></stop>
            <stop stop-color="#000000" stop-opacity="0.9" offset="100%"></stop>
        </linearGradient>
    </defs>
    <g id="GRAFICA_CALORIAS" stroke="none" stroke-width="1" fill="none" fill-rule="evenodd" transform="translate(0.000000, -262.000000)">
        <path d="M13.6182872,470.863414 C13.6182872,470.863414 29.2180264,471.979563 53.4022107,444.695375 C77.5863951,417.411187 109.869084,400.927412 147.548269,412.557652 C185.227454,424.187892 221.710594,444.066987 241.614591,399.613626 C261.518588,355.160264 293.175422,252.969983 325.409969,262.641579 C357.644515,272.313175 377.163174,386.340203 377.163174,386.340203 L379,667.328292 L0,665.276964 L1.37048347,474.167517 L13.6182872,470.863414 Z" id="Path-2" fill="url(#linearGradient-1)"></path>
    </g>
</svg>